…
# colony

         Sample1    Sample2    type
    1 ASP.r2.143 ASP.r2.188 HalfSib
    2 ASP.r2.143 ASP.r2.195 HalfSib
    3 ASP.r2.143 ASP.r2.227 HalfSib
    4 ASP.r2.182 ASP.r2.232 HalfSib
    5 ASP.r2.186 ASP.r2.215 HalfSib
    6 ASP.r2.187 ASP.r2.216 HalfSib
    7 ASP.r2.188 ASP.r2.195 HalfSib
    8 ASP.r2.188 ASP.r2.232 HalfSib

---

    # A tibble: 37 x 1
       OffspringID
       <chr>      
     1 ASP.r2.140 
     2 ASP.r2.141 
     3 ASP.r2.142 
     4 ASP.r2.144 
     5 ASP.r2.145 
     6 ASP.r2.146 
     7 ASP.r2.147 
     8 ASP.r2.148 
     9 ASP.r2.149 
    10 ASP.r2.150 
    # ... with 27 more rows
